# Columns are as follows:
# Column 1: Z (atomic number)
# Column 2: A (atomic mass number)
# Column 3: Lifetime in sec (-1 => stable)
# Columns 4 - 3+ndaughter: Branching ratios for daughter nuclide production
# Columns 4+ndaughter - 5+2*ndaughter: (Z, A) values for each daughter nuclide
1   1   -1
1   2   -1
1   3   5.605e8   1.   2   3
2   3   -1
2   4   -1
2   6   1.164   1.   2.8e-6   2.8e-6   3   6   2   4   1   1
3   6   -1
3   7   -1
3   8   1.212   1.   1.   2   4   2   4
4   7   6.634e6   1.   3   7
4   9   -1
4   10   6.87e13   1.   5   10
4   11   19.92   0.97   0.029   0.029   5   11   3   7   2   4
5   8   1.11   1.   1.   2   4   2   4
5   10   -1
5   11   -1
6   10   27.83   1.   5   10
6   11   1760.1   1.   5   11
6   12   -1
6   13   -1
6   14   2.6e11   1.   7   14
6   15   3.533   1.   7   15
6   16   1.08   0.979   0.021   7   15   7   16
7   13   862.6   1.   6   13
7   14   -1
7   15   -1
7   16   10.3   1.   1.e-5   1.e-5   8   16   6   12   2   4
7   17   6.02   0.95   0.05   0.000025   0.000025   8   16   8   17   6   13   2   4
8   14   101.86   1.   7   14
8   15   176.36   1.   7   15
8   16   -1
8   17   -1
8   18   -1
8   19   38.78   1.   9   19
8   20   19.49   1.   9   20
8   21   4.93   1.   9   21
8   22   3.25   0.78   0.22   9   22   9   21
9   17   93.04   1.   8   17
9   18   9501.96   1.   8   18
9   19   -1
9   20   15.97   1.   10   20
9   21   5.999   1.   10   21
9   22   6.1   0.89   0.11   10   22   10   21
9   23   3.22   0.86   0.14   10   23   10   22
10   18   2.412   1.   9   18
10   19   24.84   1.   9   19
10   20   -1
10   21   -1
10   22   -1
10   23   53.73   1.   11   23
10   24   293.   1.   11   24
11   21   32.45   1.   10   21
11   22   1.1841e8   1.   10   22
11   23   -1
11   24   77890.   1.   12   24
11   25   85.3   1.   12   25
11   26   1.554   1.   12   26
12   22   5.5912   1.   11   22
12   23   16.327   1.   11   23
12   24   -1
12   25   -1
12   26   -1
12   27   818.7   1.   13   27
12   28   108630.   1.   13   28
12   29   1.9   1.   13   29
13   24   2.962   1.   0.00035   0.000016   0.00035   0.000016   12   24   10   20   11   23   2   4   1   1
13   25   10.36   1.   12   25
13   26   3.26e13   1.   12   26
13   27   -1
13   28   194.02   1.   14   28
13   29   568.   1.   14   29
13   30   5.2   1.   14   30
14   26   3.223   1.   13   26
14   27   6.   1.   13   27
14   28   -1
14   29   -1
14   30   -1
14   31   13620.   1.   15   31
14   32   6.96e9   1.   15   32
14   33   8.81   1.   15   33
14   34   4.   1.   15   34
14   35   1.13   0.95   0.05   15   35   15   34
15   29   5.976   1.   14   29
15   30   216.2   1.   14   30
15   31   -1
15   32   1.7777e6   1.   16   32
15   33   3.159e6   1.   16   33
15   34   17.93   1.   16   34
15   35   68.2   1.   16   35
15   36   8.1   1.   16   36
15   37   3.33   1.   16   37
16   30   1.699   1.   15   30
16   31   3.711   1.   15   31
16   32   -1
16   33   -1
16   34   -1
16   35   1.091e7   1.   17   35
16   36   -1
16   37   437.   1.   17   37
16   38   14740.   1.   17   38
16   39   16.6   1.   17   39
16   40   13.   1.   17   40
16   41   2.87   1.   17   41
16   42   1.461   0.96   0.04   17   42   17   41
17   33   3.623   1.   16   33
17   34   2.2021   1.   16   34
17   35   -1
17   36   1.37e13   0.981   0.019   18   36   16   36
17   37   -1
17   38   3224.   1.   18   38
17   39   4.86e3   1.   18   39
17   40   117.   1.   18   40
17   41   55.4   1.   18   41
17   42   9.8   1.   18   42
17   43   4.52   1.   18   43
18   34   1.22   1.   17   34
18   35   2.561   1.   17   35
18   36   -1
18   37   4.356e6   1.   17   37
18   38   -1
18   39   1.22e10   1.   19   39
18   40   -1
18   41   9488.   1.   19   41
18   42   1.5e9   1.   19   42
18   43   465.   1.   19   43
18   44   1027.   1.   19   44
18   45   30.99   1.   19   45
18   46   12.   1.   19   46
18   47   1.77   0.99   0.01   19   47   19   46
19   37   1.769   1.   18   37
19   38   661.   1.   18   38
19   39   -1
19   40   5.678e16   0.8928   0.1072   20   40   18   40
19   41   -1
19   42   63992.   1.   20   42
19   43   1.16e5   1.   20   43
19   44   1916.   1.   20   44
19   45   1542.   1.   20   45
19   46   151.   1.   20   46
19   47   25.2   1.   20   47
19   48   9.8   0.99   0.0114   20   48   20   47
19   49   1.82   0.86   0.14   20   48   20   49
20   39   1.24   1.   19   39
20   40   1.4e29
20   41   4.64e12   1.   19   41
20   42   -1
20   43   -1
20   44   -1
20   45   2.0269e7   1.   21   45
20   46   1.27e23
20   47   5.654e5   1.   21   47
20   48   8.6e26
20   49   754.6   1.   21   49
20   50   20.1   1.   21   50
20   51   14.   1.   21   51
20   52   6.6   0.98   0.02   21   52   21   51
21   43   20210.   1.   20   43
21   44   2.06e4   1.   20   44
21   45   -1
21   46   1.044e7   1.   22   46
21   47   417470.   1.   22   47
21   48   2.268e5   1.   22   48
21   49   4950.   1.   22   49
21   50   147.9   1.   22   50
21   51   17.9   1.   22   51
21   52   12.   1.   22   52
21   53   4.   1.   22   53
22   44   2.7e9   1.   21   44
22   45   1.6e4   1.   21   45
22   46   -1
22   47   -1
22   48   -1
22   49   -1
22   50   -1
22   51   499.   1.   23   51
22   52   1.5e2   1.   23   52
22   53   47.3   1.   23   53
22   54   2.2   1.   23   54
22   55   1.9   1.   23   55
23   43   1.15
23   47   2820.   1.   22   47
23   48   1.99108e6   1.   22   48
23   49   4.11e7   1.   22   49
23   50   6.4e24   0.83   0.17   22   50   24   50
23   51   -1
23   52   324.   1.   24   52
23   53   140.   1.   24   53
23   54   71.8   1.   24   54
23   55   9.44   1.   24   55
24   48   1.12e5   1.   23   48
24   49   3660.   1.   23   49
24   50   5.9e25
24   51   3.45308e6   1.   23   51
24   52   -1
24   53   -1
24   54   -1
24   55   302.7   1.   25   55
24   56   514.   1.   25   56
24   57   30.4   1.   25   57
24   58   10.   1.   25   58
25   51   4.e3   1.   24   51
25   52   6.969e5   1.   24   52
25   53   1.7e14   1.   24   53
25   54   3.8905e7   1.   2.9e-6   1.28e-9   24   54   26   54   24   54
25   55   -1
25   56   13394.   1.   26   56
25   57   123.   1.   26   57
25   58   4.3   1.   26   58
25   59   6.62   1.   26   59
25   60   74.   1.   26   60
25   62   1.27   1.   26   62
26   52   42980.   1.   25   52
26   53   737.   1.   25   53
26   54   -1
26   55   1.245e8   1.   25   55
26   56   -1
26   57   -1
26   58   -1
26   59   5.5463e6   1.   27   59
26   60   1.183e14   1.   27   60
26   61   518.   1.   27   61
26   62   98.   1.   27   62
26   63   8.8   1.   27   63
26   64   2.9   1.   27   64
26   65   1.9   1.   27   65
27   55   91050.   1.   26   55
27   56   9.627e6   1.   26   56
27   57   3.3872e7   1.   26   57
27   58   8.833e6   1.   26   58
27   59   -1
27   60   2.3999e8   1.   28   60
27   61   8570.   1.   28   61
27   62   130.   1.   28   62
27   63   39.5   1.   28   63
27   65   1.7   1.   28   65
28   56   7.572e5   1.   27   56
28   57   1.85e5   1.   27   57
28   58   -1
28   59   3.5e12   1.   27   59
28   60   -1
28   61   -1
28   62   -1
28   63   4.554e9   1.   29   63
28   64   -1
28   65   13074.   1.   29   65
28   66   2.84e5   1.   29   66
28   67   30.   1.   29   67
28   68   42.   1.   29   68
28   69   16.4   1.   29   69
28   70   8.8   1.   29   70
28   71   3.69   1.   29   71
28   72   2.27   1.   29   72
28   73   1.21   1.   29   73
29   58   4.622   1.   28   58
29   59   118.   1.   28   59
29   60   2050.   1.   28   60
29   61   17310.   1.   28   61
29   62   837.3   1.   28   62
29   63   -1
29   64   6.6e4   0.61   0.39   28   64   30   64
29   65   -1
29   66   443.   1.   30   66
29   67   3.211e5   1.   30   67
29   68   44.9   1.   30   68
29   69   247.   1.   30   69
29   70   64.2   1.   30   70
29   71   28.1   1.   30   71
29   72   9.5   1.   30   72
29   73   6.1   1.   30   73
29   74   2.3   1.   30   74
29   75   1.766   0.96   0.035   30   75   30   74
30   60   206.   1.   29   60
30   61   129.   1.   29   61
30   62   47710.   1.   29   62
30   63   3330.   1.   29   63
30   64   -1
30   65   3.0372e7   1.   29   65
30   66   -1
30   67   -1
30   68   -1
30   69   4880.   1.   31   69
30   70   5.9e23
30   71   212.   1.   31   71
30   72   2.42e5   1.   31   72
30   73   33.9   1.   31   73
30   74   138.   1.   31   74
30   75   14.7   1.   31   75
30   76   8.2   1.   31   76
30   77   3.   1.   31   77
30   78   2.12   1.   31   78
30   79   1.44   0.99   0.013   31   79   31   78
31   63   46.7   1.   30   63
31   64   227.4   1.   30   64
31   65   1320.   1.   30   65
31   66   4.93e4   1.   30   66
31   67   4.0657e5   1.   30   67
31   68   5861.   1.   30   68
31   69   -1
31   70   1830.   1.   0.0041   32   70   30   70
31   71   -1
31   72   7.32e4   1.   32   72
31   73   2.52e4   1.   32   73
31   74   703.   1.   32   74
31   75   182.   1.   32   75
31   76   47.   1.   32   76
31   77   19.   1.   32   77
31   78   7.34   1.   32   78
31   79   4.107   1.   0.00089   32   79   32   78
31   80   2.418   0.99   0.0089   32   80   32   79
31   81   1.756   0.88   0.119   32   81   32   80
32   64   91.9   1.   31   64
32   65   44.6   1.   0.00011   0.00011   31   65   30   64   1   1
32   66   1.17e4   1.   31   66
32   67   1.64e3   1.   31   67
32   68   3.3774e7   1.   31   68
32   69   2.028e5   1.   31   69
32   70   -1
32   71   1.425e6   1.   31   71
32   72   -1
32   73   -1
32   74   -1
32   75   7166.   1.   33   75
32   76   -1
32   77   5.87e4   1.   33   77
32   78   7.6e3   1.   33   78
32   79   27.38   1.   33   79
32   80   42.6   1.   33   80
32   81   11.   1.   33   81
32   82   6.56   1.   33   82
32   83   2.67   1.   33   83
32   84   1.366   0.89   0.108   33   84   33   83
33   67   61.3   1.   32   67
33   68   218.7   1.   32   68
33   69   1320.   1.   32   69
33   70   4550.   1.   32   70
33   71   3.39e5   1.   32   71
33   72   1.4e5   1.   32   72
33   73   1.e7   1.   32   73
33   74   2.215e6   0.66   0.34   32   74   34   74
33   75   -1
33   76   1.3639e5   1.   0.0002   34   76   32   76
33   77   2.017e5   1.   34   77
33   78   7850.   1.   34   78
33   79   780.   1.   34   79
33   80   21.9   1.   34   80
33   81   48.   1.   34   81
33   82   27.6   1.   34   82
33   83   19.3   1.   34   83
33   84   4.67   1.   0.0028   34   84   34   83
33   85   2.916   0.594   0.41   34   84   34   85
33   86   1.36   0.67   0.33   34   86   34   85
34   68   51.2   1.   33   68
34   69   39.5   1.   0.00045   0.00045   33   69   32   68   1   1
34   70   3560.   1.   33   70
34   71   410.   1.   33   71
34   72   1.e6   1.   33   72
34   73   3.71e4   1.   33   73
34   74   -1
34   75   1.4932e7   1.   33   75
34   76   -1
34   77   -1
34   78   -1
34   79   1.34e13   1.   35   79
34   80   -1
34   81   1597.   1.   35   81
34   82   -1
34   83   1930.   1.   35   83
34   84   268.   1.   35   84
34   85   45.7   1.   35   85
34   86   22.1   1.   35   86
34   87   7.9   1.   0.002   35   87   35   86
34   88   2.21   0.99   0.0099   35   88   35   87
35   71   30.9   1.   34   71
35   72   113.   1.   34   72
35   73   2.9e2   1.   34   73
35   74   2.2e3   1.   34   74
35   75   8370.   1.   34   75
35   76   8.41e4   1.   34   76
35   77   296230.   1.   34   77
35   78   559.   1.   0.e-4   34   78   36   78
35   79   -1
35   80   1530.   0.917   0.083   36   80   34   80
35   81   -1
35   82   183240.   1.   36   82
35   83   1.2e4   1.   36   83
35   84   2753.   1.   36   84
35   85   251.   1.   36   85
35   86   79.5   1.   36   86
35   87   80.29   0.97   0.026   36   87   36   86
35   88   23.5   0.93   0.0658   36   88   36   87
35   89   6.3   0.86   0.138   36   89   36   88
35   90   2.76   0.75   0.252   36   90   36   89
36   72   24.7   1.   35   72
36   73   39.4   1.   0.0025   0.0025   35   73   34   72   1   1
36   74   995.   1.   35   74
36   75   371.   1.   35   75
36   76   7.69e4   1.   35   76
36   77   6440.   1.   35   77
36   78   1.e28
36   79   1.82e5   1.   35   79
36   80   -1
36   81   1.04e13   1.   35   81
36   82   -1
36   83   -1
36   84   -1
36   85   4.8822e8   1.   37   85
36   86   -1
36   87   6.6e3   1.   37   87
36   88   1.48e4   1.   37   88
36   89   273.   1.   37   89
36   90   46.63   1.   37   90
36   91   12.4   1.   37   91
36   92   2.65   1.   0.000332   37   92   37   91
36   93   1.855   0.98   0.0195   37   93   37   92
37   75   27.   1.   36   75
37   76   52.7   1.   3.8e-9   3.8e-9   36   76   34   72   2   4
37   77   326.   1.   36   77
37   78   1529.   1.   36   78
37   79   1.98e3   1.   36   79
37   80   48.2   1.   36   80
37   81   2.374e4   1.   36   81
37   82   110.2   1.   36   82
37   83   1.07e7   1.   36   83
37   84   4.13e6   0.962   0.038   36   84   38   84
37   85   -1
37   86   2.3237e6   1.   0.000052   38   86   36   86
37   87   2.19e18   1.   38   87
37   88   1538.5   1.   38   88
37   89   1311.   1.   38   89
37   90   228.   1.   38   90
37   91   84.3   1.   38   91
37   92   6.481   1.   0.000107   38   92   38   91
37   93   8.43   0.99   0.0139   38   93   38   92
37   94   3.898   0.9   0.1001   38   94   38   93
38   76   11.4   1.   37   76
38   77   13.   1.   0.0025   0.0025   37   77   36   76   1   1
38   78   2.2e2   1.   37   78
38   79   195.   1.   37   79
38   80   9202.   1.   37   80
38   81   1930.   1.   37   81
38   82   3.185e6   1.   37   82
38   83   1.683e5   1.   37   83
38   84   -1
38   85   8.0839e6   1.   37   85
38   86   -1
38   87   -1
38   88   -1
38   89   6.299e6   1.   39   89
38   90   1.315e9   1.   39   90
38   91   5.e4   1.   39   91
38   92   1.38e4   1.   39   92
38   93   642.5   1.   39   93
38   94   109.   1.   39   94
38   95   34.5   1.   39   95
38   96   1.54   1.   39   96
39   79   21.4   1.   38   79
39   80   43.4   1.   38   80
39   81   102.   1.   38   81
39   82   12.   1.   38   82
39   83   613.   1.   38   83
39   84   6.6   1.   38   84
39   85   1.39e4   1.   38   85
39   86   76560.   1.   38   86
39   87   4.14e5   1.   38   87
39   88   1.32908e7   1.   38   88
39   89   -1
39   90   3.3e5   1.   40   90
39   91   7.293e6   1.   40   91
39   92   1.84e4   1.   40   92
39   93   52870.   1.   40   93
39   94   1620.   1.   40   94
39   95   892.   1.   40   95
39   96   7.7   1.   40   96
39   97   5.41   1.   0.00058   40   97   40   96
39   99   2.12   0.98   0.019   40   99   40   98
39   100   1.06   0.99   0.0092   40   100   40   99
40   80   6.6   1.   39   80
40   81   7.9   1.   0.0012   0.0012   39   81   38   80   1   1
40   82   46.   1.   39   82
40   83   60.   1.   39   83
40   84   2.24e3   1.   39   84
40   85   680.   1.   39   85
40   86   8.57e4   1.   39   86
40   87   8730.   1.   39   87
40   88   1.04e7   1.   39   88
40   89   4.072e5   1.   39   89
40   90   -1
40   91   -1
40   92   -1
40   93   6.97e13   1.   41   93
40   94   -1
40   95   7.9815e6   1.   41   95
40   96   9.1e26   1.   42   96
40   97   86963.   1.   41   97
40   98   44.3   1.   41   98
40   99   3.   1.   41   99
40   100   10.   1.   41   100
40   101   3.3   1.   41   101
40   102   4.2   1.   41   102
40   103   1.9   1.   41   103
40   104   1.7   1.   41   104
41   81   1.2
41   83   5.9   1.   40   83
41   84   14.   1.   40   84
41   85   30.2   1.   40   85
41   86   130.   1.   40   86
41   87   325.   1.   40   87
41   88   1259.   1.   40   88
41   89   1.05e4   1.   40   89
41   90   7.58e4   1.   40   90
41   91   3.1e10   1.   0.000138   40   91   40   91
41   92   1.58e15   1.   0.0005   40   92   42   92
41   93   -1
41   94   9.24e11   1.   42   94
41   95   4.3616e6   1.   42   95
41   96   1.213e5   1.   42   96
41   97   6240.   1.   42   97
41   98   4.13   1.   42   98
41   99   22.   1.   42   99
41   100   2.2   1.   42   100
41   101   10.   1.   42   101
41   102   1.9   1.   42   102
41   103   2.2   1.   42   103
41   104   7.1   1.   0.0006   42   104   42   103
41   105   4.26   0.98   0.017   42   105   42   104
41   106   1.34   0.95   0.045   42   106   42   105
42   84   5.3   1.   41   84
42   85   4.6   1.   41   85
42   86   28.3   1.   41   86
42   87   20.23   0.85   0.15   0.15   41   87   40   86   1   1
42   88   690.   1.   41   88
42   89   183.   1.   41   89
42   90   2.89e4   1.   41   90
42   91   1341.   1.   41   91
42   92   -1
42   93   1.8e11   1.   41   93
42   94   -1
42   95   -1
42   96   -1
42   97   -1
42   98   -1
42   99   3.425e5   1.   43   99
42   100   3.3e26   1.   44   100
42   101   1265.   1.   43   101
42   102   978.   1.   43   102
42   103   97.4   1.   43   103
42   104   88.   1.   43   104
42   105   51.4   1.   43   105
42   106   12.6   1.   43   106
42   107   5.   1.   43   107
42   108   1.57   1.   43   108
43   87   3.15   1.   42   87
43   88   8.4   1.   42   88
43   89   18.5   1.   42   89
43   90   13.   1.   42   90
43   91   272.   1.   42   91
43   92   368.   1.   42   92
43   93   1.43e4   1.   42   93
43   94   2.54e4   1.   42   94
43   95   1.e5   1.   42   95
43   96   5.33e5   1.   42   96
43   97   1.92e14   1.   42   97
43   98   1.9e14   1.   0   44   98   42   98
43   99   9.604e12   1.   44   99
43   100   22.3   1.   0.000018   44   100   42   100
43   101   1231.   1.   44   101
43   102   7.62   1.   44   102
43   103   78.2   1.   44   103
43   104   1580.   1.   44   104
43   105   660.   1.   44   105
43   106   51.4   1.   44   106
43   107   30.6   1.   44   107
43   108   7.46   1.   44   108
43   109   1.24   1.   0.0008   44   109   44   108
43   110   1.33   1.   0.0004   44   110   44   109
44   88   1.7   1.   43   88
44   89   2.2   1.   43   89
44   90   16.9   1.   43   90
44   91   11.   1.   43   91
44   92   316.   1.   43   92
44   93   86.1   1.   43   93
44   94   4480.   1.   43   94
44   95   8533.   1.   43   95
44   96   -1
44   97   3.6e5   1.   43   97
44   98   -1
44   99   -1
44   100   -1
44   101   -1
44   102   -1
44   103   4.894e6   1.   45   103
44   104   -1
44   105   2.31e4   1.   45   105
44   106   4.634e7   1.   45   106
44   107   325.   1.   45   107
44   108   394.   1.   45   108
44   109   49.8   1.   45   109
44   110   16.7   1.   45   110
44   111   3.06   1.   45   111
44   112   2.52   1.   45   112
44   113   1.15   1.   45   113
44   115   1.07   1.   45   115
45   91   2.12   1.   44   91
45   93   17.2   1.   44   93
45   94   102.   0.98   0.018   0.018   44   94   43   93   1   1
45   95   435.   1.   44   95
45   96   857.   1.   44   96
45   97   2660.   1.   44   97
45   98   755.   1.   44   98
45   99   2.01e6   1.   44   99
45   100   1.08e5   1.   44   100
45   101   1.5e8   1.   44   101
45   102   2.58e7   0.78   0.22   44   102   46   102
45   103   -1
45   104   61.   1.   0.0045   46   104   44   104
45   105   1.836e5   1.   46   105
45   106   43.38   1.   46   106
45   107   1880.   1.   46   107
45   108   24.2   1.   46   108
45   109   120.   1.   46   109
45   110   41.1   1.   46   110
45   111   16.   1.   46   111
45   112   4.9   1.   46   112
45   113   4.   1.   46   113
45   114   2.67   1.   46   114
45   115   1.43   1.   46   115
46   92   1.   1.   45   92
46   93   1.9   1.   45   93
46   94   13.   1.   45   94
46   95   14.   1.   45   95
46   96   176.   1.   45   96
46   97   268.   1.   45   97
46   98   1530.   1.   45   98
46   99   1.85e3   1.   45   99
46   100   4.52e5   1.   45   100
46   101   4.4e4   1.   45   101
46   102   -1
46   103   2.1179e6   1.   45   103
46   104   -1
46   105   -1
46   106   -1
46   107   3.e14   1.   47   107
46   108   -1
46   109   7.116e4   1.   47   109
46   110   -1
46   111   2030.   1.   47   111
46   112   1.092e5   1.   47   112
46   113   130.   1.   47   113
46   114   209.   1.   47   114
46   115   36.   1.   47   115
46   116   17.   1.   47   116
46   117   6.3   1.   47   117
46   118   2.7   1.   47   118
46   119   1.33   1.   47   119
47   95   2.9   1.   46   95
47   96   6.42   0.9   0.097   0.097   46   96   45   95   1   1
47   97   37.4   1.   46   97
47   98   68.5   1.   0.000012   0.000012   46   98   45   97   1   1
47   99   179.   1.   46   99
47   100   174.   1.   46   100
47   101   961.   1.   46   101
47   102   1120.   1.   46   102
47   103   5690.   1.   46   103
47   104   5990.   1.   46   104
47   105   5.147e6   1.   46   105
47   106   2074.   0.995   0.005   46   106   48   106
47   107   -1
47   108   205.   0.9715   0.0285   48   108   46   108
47   109   -1
47   110   35.5   1.   0.003   48   110   46   110
47   111   9.29e5   1.   48   111
47   112   1.626e4   1.   48   112
47   113   2.79e4   1.   48   113
47   114   6.6   1.   48   114
47   115   1.7e3   1.   48   115
47   116   232.   1.   48   116
47   117   105.   1.   48   117
47   118   5.42   1.   48   118
47   119   8.7   1.   48   119
47   120   1.77   1.   0.00003   48   120   48   119
47   121   1.14   1.   0.0008   48   121   48   120
48   96   1.
48   97   4.   1.   47   97
48   98   13.   1.   0.00025   0.00025   47   98   46   97   1   1
48   99   23.   1.   0.0021   1.e-6   0.0021   1.e-6   47   99   46   98   45   95   1   1   2   4
48   100   70.8   1.   47   100
48   101   118.   1.   47   101
48   102   480.   1.   47   102
48   103   630.   1.   47   103
48   104   4990.   1.   47   104
48   105   4.8e3   1.   47   105
48   106   -1
48   107   3.4e4   1.   47   107
48   108   -1
48   109   5.751e7   1.   47   109
48   110   -1
48   111   -1
48   112   -1
48   113   3.5e23   1.   49   113
48   114   -1
48   115   2.777e5   1.   49   115
48   116   1.4e27   1.   50   116
48   117   1.29e4   1.   49   117
48   118   4350.   1.   49   118
48   119   233.   1.   49   119
48   120   73.3   1.   49   120
48   121   19.5   1.   49   121
48   122   7.56   1.   49   122
48   123   3.   1.   49   123
48   124   1.8   1.   49   124
49   99   4.4   1.   48   99
49   100   8.4   0.96   0.039   0.039   48   100   47   99   1   1
49   101   21.8   1.   48   101
49   102   33.6   1.   0.000093   0.000093   48   102   47   101   1   1
49   103   94.   1.   48   103
49   104   156.   1.   48   104
49   105   439.   1.   48   105
49   106   541.   1.   48   106
49   107   2.8e3   1.   48   107
49   108   5.e3   1.   48   108
49   109   2.2e4   1.   48   109
49   110   2.5e4   1.   48   110
49   111   3.496e5   1.   48   111
49   112   1296.   0.56   0.44   48   112   50   112
49   113   -1
49   114   104.   0.995   0.005   50   114   48   114
49   115   2.01e22   1.   50   115
49   116   20.3   1.   0.0023   50   116   48   116
49   117   3740.   1.   50   117
49   118   7.2   1.   50   118
49   119   2.1e2   1.   50   119
49   120   4.44   1.   50   120
49   121   33.3   1.   50   121
49   122   2.2   1.   50   122
49   123   8.9   1.   50   123
49   124   4.5   1.   50   124
49   125   3.4   1.   50   125
49   126   2.21   1.   50   126
49   127   1.57   1.   0.0003   50   127   50   126
49   128   1.21   1.   0.00038   50   128   50   127
50   100   1.4   0.83   0.17   0.17   49   100   48   99   1   1
50   101   2.5   1.   49   101
50   102   6.5   1.   49   102
50   103   10.   1.   49   103
50   104   30.   1.   49   104
50   105   49.   1.   49   105
50   106   166.   1.   49   106
50   107   251.   1.   49   107
50   108   892.   1.   49   108
50   109   1.6e3   1.   49   109
50   110   2.13e4   1.   49   110
50   111   3060.   1.   49   111
50   112   -1
50   113   1.4346e7   1.   49   113
50   114   -1
50   115   -1
50   116   -1
50   117   -1
50   118   -1
50   119   -1
50   120   -1
50   121   1.404e5   1.   51   121
50   122   -1
50   123   1.61e7   1.   51   123
50   124   -1
50   125   1.2e6   1.   51   125
50   126   1.05e13   1.   51   126
50   127   1.1e4   1.   51   127
50   128   5113.   1.   51   128
50   129   193.   1.   51   129
50   130   322.   1.   51   130
50   131   80.   1.   51   131
50   132   57.3   1.   51   132
50   133   2.09   1.   0.000294   51   133   51   132
50   134   1.515   0.83   0.17   51   134   51   133
51   105   1.76   0.01   0.01   50   104   1   1
51   107   5.7   1.   50   107
51   108   11.   1.   50   108
51   109   25.   1.   50   109
51   110   33.   1.   50   110
51   111   110.   1.   50   111
51   112   74.2   1.   50   112
51   113   577.   1.   50   113
51   114   302.   1.   50   114
51   115   2780.   1.   50   115
51   116   1370.   1.   50   116
51   117   1.5e4   1.   50   117
51   118   3.1e2   1.   50   118
51   119   1.983e5   1.   50   119
51   120   1375.   1.   50   120
51   121   -1
51   122   339520.   0.9759   0.0241   52   122   50   122
51   123   -1
51   124   7.5e6   1.   52   124
51   125   1.2551e8   1.   52   125
51   126   1.539e6   1.   52   126
51   127   4.8e5   1.   52   127
51   128   4.68e4   1.   52   128
51   129   2.3e4   1.   52   129
51   130   3420.   1.   52   130
51   131   1994.   1.   52   131
51   132   242.   1.   52   132
51   133   220.   1.   52   133
51   134   1.13   1.   52   134
51   135   2.42   0.78   0.22   52   135   52   134
51   136   1.33   0.83   0.163   0.0028   52   136   52   135   52   134
52   108   3.   0.49   0.49   0.024   0.00065   0.49   0.024   0.00065   50   104   51   108   50   107   49   104   2   4   1   1   2   4
52   109   6.6   0.094   0.039   0.00005   0.094   0.039   0.00005   50   108   50   105   49   105   1   1   2   4   2   4
52   110   26.8   1.   0.00003   0.00003   51   110   50   106   2   4
52   111   27.8   1.   51   111
52   112   170.   1.   51   112
52   113   1.5e2   1.   51   113
52   114   1320.   1.   51   114
52   115   5.e2   1.   51   115
52   116   1.29e4   1.   51   116
52   117   5.4e3   1.   0.25   51   117   51   117
52   118   7.5e5   1.   51   118
52   119   83360.   1.   51   119
52   120   -1
52   121   2.388e6   1.   51   121
52   122   -1
52   123   4.2e24   1.   51   123
52   124   -1
52   125   -1
52   126   -1
52   127   4.86e4   1.   53   127
52   128   4.e26   1.   54   128
52   129   6020.   1.   53   129
52   130   2.e31   1.   54   130
52   131   2.2e3   1.   53   131
52   132   3.994e5   1.   53   132
52   133   1080.   1.   53   133
52   134   3620.   1.   53   134
52   135   27.   1.   53   135
52   136   25.43   0.99   0.0131   53   136   53   135
52   137   3.59   0.97   0.0299   53   137   53   136
52   138   2.   0.94   0.063   53   138   53   137
53   111   3.6   1.   0.00088   0.00088   52   111   51   107   2   4
53   112   4.93   0.99   0.0088   0.00104   0.000012   0.0088   0.00104   0.000012   52   112   51   111   50   108   51   108   1   1   2   4   2   4
53   113   9.5   1.   3.31e-9   3.31e-9   52   113   51   109   2   4
53   114   3.   1.   52   114
53   115   110.   1.   52   115
53   116   4.2   1.   52   116
53   117   192.   1.   0.77   52   117   52   117
53   118   1190.   1.   52   118
53   119   1.65e3   1.   52   119
53   120   7060.   1.   52   120
53   121   1.1e4   1.   52   121
53   122   314.   1.   52   122
53   123   68678.9   1.   52   123
53   124   5.205e5   1.   52   124
53   125   7.4e6   1.   52   125
53   126   1.612e6   0.527   0.473   52   126   54   126
53   127   -1
53   128   2163.   0.931   0.069   54   128   52   128
53   129   7.15e14   1.   54   129
53   130   64190.   1.   54   130
53   131   1.0003e6   1.   54   131
53   132   11920.   1.   54   132
53   133   1.08e5   1.   54   133
53   134   4540.   1.   54   134
53   135   3.41e4   1.   54   135
53   136   120.   1.   54   136
53   137   35.3   0.93   0.0714   54   137   54   136
53   138   8.99   0.95   0.0546   54   138   54   137
53   139   3.289   0.9   0.1   54   139   54   138
53   140   1.24   0.91   0.093   54   140   54   139
54   111   1.07   0.9   0.1   0.1   53   111   52   107   2   4
54   112   3.9   1.   0.009   0.009   53   112   52   108   2   4
54   113   3.95   0.93   0.07   0.00011   0.00007   0.07   0.00011   0.00007   53   113   52   112   52   109   51   109   1   1   2   4   2   4
54   114   14.   1.   53   114
54   115   26.   1.   0.0034   3.e-6   0.0034   3.e-6   53   115   52   114   51   111   1   1   2   4
54   116   85.   1.   53   116
54   117   88.   1.   0.000029   0.000029   53   117   52   116   1   1
54   118   330.   1.   53   118
54   119   5.e2   0.79   0.21   53   119   53   119
54   120   3.5e3   1.   53   120
54   121   3470.   1.   53   121
54   122   1.04e5   1.   53   122
54   123   1.08e4   1.   53   123
54   124   7.3e21
54   125   8.78e4   1.   53   125
54   126   -1
54   127   4.5304e6   1.   53   127
54   128   -1
54   129   -1
54   130   -1
54   131   -1
54   132   -1
54   133   6.535e5   1.   55   133
54   134   2.6e30
54   135   4.75e4   1.   55   135
54   136   1.1e29
54   137   330.5   1.   55   137
54   138   1219.   1.   55   138
54   139   57.25   1.   55   139
54   140   19.6   1.   55   140
54   141   2.5   1.   0.00044   55   141   55   140
54   142   1.803   1.   0.0036   55   142   55   141
55   115   2.   1.   0.0007   0.0007   54   115   53   114   1   1
55   116   1.01   1.   0.0028   0.00049   0.0028   0.00049   54   116   53   115   52   112   1   1   2   4
55   117   12.   1.   54   117
55   118   20.   1.   0.00021   0.000012   0.00021   0.000012   54   118   53   117   52   114   1   1   2   4
55   119   62.   1.   2.e-8   2.e-8   54   119   52   115   2   4
55   120   88.3   1.   2.e-7   7.e-8   2.e-7   7.e-8   54   120   52   116   53   119   2   4   1   1
55   121   224.   1.   54   121
55   122   30.56   1.   2.e-9   2.e-9   54   122   52   118   2   4
55   123   508.   1.   54   123
55   124   44.6   1.   54   124
55   125   4.04e3   1.   54   125
55   126   142.   1.   54   126
55   127   3.25e4   1.   54   127
55   128   317.   1.   54   128
55   129   1.665e5   1.   54   129
55   130   2528.   0.984   0.016   54   130   56   130
55   131   1.208e6   1.   54   131
55   132   8.076e5   0.9813   0.0187   54   132   56   132
55   133   -1
55   134   9.396e7   1.   3.e-6   56   134   54   134
55   135   1.e14   1.   56   135
55   136   1.625e6   1.   56   136
55   137   1.369e9   1.   56   137
55   138   2892.   1.   56   138
55   139   802.   1.   56   139
55   140   91.9   1.   56   140
55   141   35.84   1.   0.00035   56   141   56   140
55   142   2.429   1.   0.0009   56   142   56   141
55   143   2.584   0.98   0.0164   56   143   56   142
55   144   1.43   0.97   0.032   56   144   56   143
56   116   1.9   0.97   0.03   0.03   55   116   54   115   1   1
56   117   2.52   0.87   0.13   0.00024   0.13   0.00024   55   117   54   116   53   113   1   1   2   4
56   118   7.9   1.   55   118
56   119   7.8   0.75   0.25   0.25   55   119   54   118   1   1
56   120   35.   1.   55   120
56   121   42.8   1.   0.0002   0.0002   55   121   54   120   1   1
56   122   169.   1.   55   122
56   123   230.   1.   55   123
56   124   950.   1.   55   124
56   125   3.e2   1.   55   125
56   126   8660.   1.   55   126
56   127   1.1e3   1.   55   127
56   128   3.03e5   1.   55   128
56   129   1.16e4   1.   55   129
56   130   -1
56   131   1.43e6   1.   55   131
56   132   1.4e29
56   133   4.788e8   1.   55   133
56   134   -1
56   135   -1
56   136   -1
56   137   -1
56   138   -1
56   139   7190.   1.   57   139
56   140   1.5895e6   1.   57   140
56   141   1581.   1.   57   141
56   142   918.   1.   57   142
56   143   20.9   1.   57   143
56   144   16.6   1.   57   144
56   145   6.22   1.   57   145
56   146   3.2   1.   57   146
56   147   1.29   1.   57   147
57   118   1.
57   119   3.
57   120   4.   1.   56   120
57   121   7.6   1.   56   121
57   122   13.   1.   56   122
57   123   25.   1.   56   123
57   124   42.14   1.   56   124
57   125   93.5   1.   56   125
57   126   78.   1.   56   126
57   127   440.   1.   56   127
57   128   448.   1.   56   128
57   129   1.e3   1.   56   129
57   130   750.   1.   56   130
57   131   5.1e3   1.   56   131
57   132   2.5e4   1.   56   132
57   133   20320.   1.   56   133
57   134   558.   1.   56   134
57   135   1.01e5   1.   56   135
57   136   854.   1.   56   136
57   137   2.7e12   1.   56   137
57   138   4.64e18   0.656   0.344   56   138   58   138
57   139   -1
57   140   209229.   1.   58   140
57   141   2.04e4   1.   58   141
57   142   7890.   1.   58   142
57   143   1230.   1.   58   143
57   144   58.9   1.   58   144
57   145   35.8   1.   58   145
57   146   9.05   1.   58   146
57   147   5.792   1.   0.0004   58   147   58   146
57   148   1.82   1.   0.0015   58   148   58   147
57   149   1.51   0.99   0.014   58   149   58   148
58   121   1.6   0.99   0.01   0.01   57   121   56   120   1   1
58   122   3.
58   123   5.5   1.   57   123
58   124   9.   1.   57   124
58   125   14.7   1.   57   125
58   126   74.   1.   57   126
58   127   45.   1.   57   127
58   128   340.   1.   57   128
58   129   3.e2   1.   57   129
58   130   1.98e3   1.   57   130
58   131   892.   1.   57   131
58   132   1.82e4   1.   57   132
58   133   8.4e3   1.   57   133
58   134   3.94e5   1.   57   134
58   135   9.19e4   1.   57   135
58   136   3.2e21
58   137   4.7e4   1.   57   137
58   138   4.1e21
58   139   1.71568e7   1.   57   139
58   140   -1
58   141   4.0521e6   1.   59   141
58   142   2.e24
58   143   171590.   1.   59   143
58   144   3.5514e7   1.   59   144
58   145   261.   1.   59   145
58   146   1170.   1.   59   146
58   147   81.6   1.   59   147
58   148   80.   1.   59   148
58   149   7.6   1.   59   149
58   150   5.7   1.   59   150
58   151   2.54   1.   59   151
58   152   2.   1.   59   152
59   121   2.
59   123   1.15
59   124   1.7   1.   58   124
59   125   4.8   1.   58   125
59   126   4.53   1.   58   126
59   127   6.1   1.   58   127
59   128   4.1   1.   58   128
59   129   46.   1.   58   129
59   130   58.   1.   58   130
59   131   130.   1.   58   131
59   132   1.4e2   1.   58   132
59   133   559.   1.   58   133
59   134   950.   1.   58   134
59   135   2.1e3   1.   58   135
59   136   1130.   1.   58   136
59   137   6650.   1.   58   137
59   138   126.   1.   58   138
59   139   2.29e4   1.   58   139
59   140   293.   1.   58   140
59   141   -1
59   142   9.93e4   1.   0.000164   60   142   58   142
59   143   1.691e6   1.   60   143
59   144   1496.   1.   60   144
59   145   31080.   1.   60   145
59   146   2090.   1.   60   146
59   147   1160.   1.   60   147
59   148   198.   1.   60   148
59   149   196.   1.   60   149
59   150   8.93   1.   60   150
59   151   27.3   1.   60   151
59   152   5.24   1.   60   152
59   153   6.17   1.   60   153
59   154   3.3   1.   60   154
60   127   2.6   1.   59   127
60   128   7.
60   129   7.1   1.   59   129
60   130   30.   1.   59   130
60   131   36.6   1.   59   131
60   132   135.   1.   59   132
60   133   1.e2   1.   59   133
60   134   740.   1.   59   134
60   135   1070.   1.   59   135
60   136   4390.   1.   59   136
60   137   3330.   1.   59   137
60   138   2.62e4   1.   59   138
60   139   2570.   1.   59   139
60   140   4.2e5   1.   59   140
60   141   1.29e4   1.   59   141
60   142   -1
60   143   -1
60   144   1.04e23   1.   1.   58   140   2   4
60   145   -1
60   146   -1
60   147   1.369e6   1.   61   147
60   148   -1
60   149   8975.   1.   61   149
60   150   3.59e26   1.   62   150
60   151   1077.   1.   61   151
60   152   987.   1.   61   152
60   153   45.6   1.   61   153
60   154   37.4   1.   61   154
60   155   13.   1.   61   155
60   156   7.92   1.   61   156
61   127   1.
61   128   1.4   1.   0   0   60   128   60   127   1   1
61   129   3.5
61   130   3.8   1.   60   130
61   131   8.9   1.   60   131
61   132   8.9   1.   5.e-7   5.e-7   60   132   59   131   1   1
61   133   22.   1.   60   133
61   134   7.   1.   60   134
61   135   71.   1.   60   135
61   136   154.   1.   60   136
61   137   2.1e2
61   138   14.   1.   60   138
61   139   359.   1.   60   139
61   140   13.   1.   60   140
61   141   1809.   1.   60   141
61   142   58.4   1.   60   142
61   143   3.3e7   1.   5.7e-8   60   143   60   143
61   144   4.52e7   1.   8.e-7   60   144   60   144
61   145   8.06e8   1.   2.8e-9   2.8e-9   60   145   59   141   2   4
61   146   2.52e8   0.66   0.34   60   146   62   146
61   147   1.1936e8   1.   62   147
61   148   6.691e5   1.   62   148
61   149   2.757e5   1.   62   149
61   150   1.39e4   1.   62   150
61   151   1.48e5   1.   62   151
61   152   357.   1.   62   152
61   153   454.   1.   62   153
61   154   232.   1.   62   154
61   155   59.9   1.   62   155
61   156   38.5   1.   62   156
61   157   15.23   1.   62   157
61   158   6.9   1.   62   158
61   159   2.12   1.   62   159
61   160   3.
61   161   1.01
62   130   1.
62   131   1.7   1.   61   131
62   132   5.8   1.   61   132
62   133   5.3   1.   61   133
62   134   14.   1.   61   134
62   135   14.9   1.   0.0002   0.0002   61   135   60   134   1   1
62   136   68.   1.   61   136
62   137   65.   1.   61   137
62   138   2.7e2   1.   61   138
62   139   222.   1.   61   139
62   140   1283.   1.   61   140
62   141   883.   1.   61   141
62   142   6275.   1.   61   142
62   143   757.   1.   61   143
62   144   -1
62   145   4.24e7   1.   61   145
62   146   4.69e15   1.   1.   60   142   2   4
62   147   4.83e18   1.   1.   60   143   2   4
62   148   3.2e23   1.   1.   60   144   2   4
62   149   -1
62   150   -1
62   151   4.1e9   1.   63   151
62   152   -1
62   153   240390.   1.   63   153
62   154   -1
62   155   1930.   1.   63   155
62   156   4.9e4   1.   63   156
62   157   695.   1.   63   157
62   158   459.   1.   63   158
62   159   16.4   1.   63   159
62   160   14.   1.   63   160
62   161   6.9   1.   63   161
62   162   3.5   1.   63   162
62   163   1.
63   135   2.2   1.   62   135
63   136   4.8   1.   0.0009   0.0009   62   136   61   135   1   1
63   137   16.   1.   62   137
63   138   17.5   1.   62   138
63   139   25.8   1.   62   139
63   140   2.18   1.   62   140
63   141   58.7   1.   62   141
63   142   3.38   1.   62   142
63   143   224.   1.   62   143
63   144   14.7   1.   62   144
63   145   7.39e5   1.   62   145
63   146   5.75e5   1.   62   146
63   147   3.e6   1.   0.000022   0.000022   62   147   61   143   2   4
63   148   6.79e6   1.   9.4e-9   9.4e-9   62   148   61   144   2   4
63   149   1.16e7   1.   62   149
63   150   1.68e9   1.   62   150
63   151   7.7e25
63   152   6.1589e8   0.721   0.279   62   152   64   152
63   153   -1
63   154   3.91e8   1.   0.0002   64   154   62   154
63   155   2.162e8   1.   64   155
63   156   1.893e6   1.   64   156
63   157   78840.   1.   64   157
63   158   3970.   1.   64   158
63   159   1.57e3   1.   64   159
63   160   55.   1.   64   160
63   161   38.   1.   64   161
63   162   15.3   1.   64   162
63   163   11.
63   164   6.1
63   165   3.3
64   135   1.6   0.98   0.02   0.02   63   135   62   134   1   1
64   137   3.2   1.   63   137
64   138   6.8   1.   63   138
64   139   8.2   1.   63   139
64   140   22.8   1.   63   140
64   141   20.   1.   0.0003   0.0003   63   141   62   140   1   1
64   142   101.   1.   63   142
64   143   56.   1.   63   143
64   144   387.   1.   63   144
64   145   2.e3   1.   63   145
64   146   6.017e6   1.   63   146
64   147   1.977e5   1.   63   147
64   148   3.23e9   1.   1.   62   144   2   4
64   149   1.16e6   1.   4.3e-6   4.3e-6   63   149   62   145   2   4
64   150   8.15e13   1.   1.   62   146   2   4
64   151   1.55e7   1.   1.e-8   1.e-8   63   151   62   147   2   4
64   152   4.92e21   1.   1.   62   148   2   4
64   153   2.997e7   1.   63   153
64   154   -1
64   155   -1
64   156   -1
64   157   -1
64   158   -1
64   159   95974.   1.   65   159
64   160   1.4e27
64   161   317.   1.   65   161
64   162   730.   1.   65   162
64   163   98.   1.   65   163
64   164   65.   1.   65   164
64   165   14.9   1.   65   165
64   166   6.9   1.   65   166
64   167   4.
64   169   1.
65   138   1.15   1.   0   0   64   138   64   137   1   1
65   139   2.3   1.   64   139
65   140   3.5   1.   0.0026   0.0026   64   140   63   139   1   1
65   141   5.   1.   64   141
65   143   17.   1.   64   143
65   144   1.   1.   64   144
65   145   1.7e3
65   146   12.   1.   64   146
65   147   8.8e3   1.   64   147
65   148   5.2e3   1.   64   148
65   149   21390.   0.833   0.167   0.167   64   149   63   145   2   4
65   150   1.81e4   1.   0.0005   0.0005   64   150   63   146   2   4
65   151   91456.   1.   0.000095   0.000095   64   151   63   147   2   4
65   152   9.09e4   1.   7.e-9   7.e-9   64   152   63   148   2   4
65   153   2.92e5   1.   64   153
65   154   1.12e5   1.   0.001   64   154   66   154
65   155   6.63e5   1.   64   155
65   156   6.67e5   1.   64   156
65   157   3.2e9   1.   64   157
65   158   8.19e9   0.834   0.166   64   158   66   158
65   159   -1
65   160   9.01e6   1.   66   160
65   161   8.608e5   1.   66   161
65   162   658.   1.   66   162
65   163   1690.   1.   66   163
65   164   260.   1.   66   164
65   165   183.   1.   66   165
65   166   36.2   1.   66   166
65   167   28.   1.   66   167
65   168   12.   1.   66   168
65   169   3.
65   170   4.
66   140   1.01
66   141   1.3   1.   65   141
66   142   3.3   1.   0.0006   0.0006   65   142   64   141   1   1
66   143   4.6   1.   65   143
66   144   13.   1.   65   144
66   145   9.   1.   65   145
66   146   42.   1.   65   146
66   147   58.   1.   0.0005   0.0005   65   147   64   146   1   1
66   148   290.   1.   65   148
66   149   364.   1.   65   149
66   150   621.   0.64   0.36   0.36   65   150   64   146   2   4
66   151   1.55e3   0.944   0.056   0.056   65   151   64   147   2   4
66   152   1.24e4   1.   0.001   0.001   65   152   64   148   2   4
66   153   3.3e4   1.   0.000094   0.000094   65   153   64   149   2   4
66   154   1.4e14   1.   1.   64   150   2   4
66   155   5.1e4   1.   65   155
66   156   -1
66   157   4.23e4   1.   65   157
66   158   -1
66   159   1.8e7   1.   65   159
66   160   -1
66   161   -1
66   162   -1
66   163   -1
66   164   -1
66   165   12120.   1.   67   165
66   166   4.24e5   1.   67   166
66   167   537.   1.   67   167
66   168   750.   1.   67   168
66   169   56.   1.   67   169
66   170   43.
66   171   9.
66   172   4.
66   173   3.
67   144   1.01   1.   66   144
67   145   3.5   1.   66   145
67   146   5.2   1.   66   146
67   147   8.4   1.   66   147
67   148   3.2   1.   66   148
67   149   30.4   1.   66   149
67   150   1.e2   1.   66   150
67   151   50.8   0.78   0.22   0.22   66   151   65   147   2   4
67   152   233.4   0.88   0.12   0.12   66   152   65   148   2   4
67   153   174.   1.   0.0005   0.0005   66   153   65   149   2   4
67   154   1018.   1.   0.00019   0.00019   66   154   65   150   2   4
67   155   4.2e3   1.   66   155
67   156   4.8e3   1.   66   156
67   157   1090.   1.   66   157
67   158   978.   1.   66   158
67   159   2861.   1.   66   159
67   160   2.22e3   1.   66   160
67   161   1.29e4   1.   66   161
67   162   1.3e3   1.   66   162
67   163   2.08e11   1.   66   163
67   164   2.5e3   0.6   0.4   66   164   68   164
67   165   -1
67   166   1.3932e5   1.   68   166
67   167   1.6e4   1.   68   167
67   168   259.   1.   68   168
67   169   409.   1.   68   169
67   170   239.   1.   68   170
67   171   76.   1.   68   171
67   172   36.   1.   68   172
67   173   14.
67   174   10.
67   175   7.
68   145   1.3   1.   67   145
68   146   2.5   1.   67   146
68   147   3.6   1.   67   147
68   148   6.6   1.   0.0015   0.0015   67   148   66   147   1   1
68   149   5.8   0.93   0.07   0.07   67   149   66   148   1   1
68   150   26.7   1.   67   150
68   151   33.9   1.   67   151
68   152   14.9   0.9   0.1   0.9   66   148   67   152   2   4
68   153   53.5   0.53   0.47   0.53   66   149   67   153   2   4
68   154   323.   1.   0.0047   0.0047   67   154   66   150   2   4
68   155   460.   1.   0.00022   0.00022   67   155   66   151   2   4
68   156   1690.   1.   1.7e-7   1.7e-7   67   156   66   152   2   4
68   157   1614.   1.   67   157
68   158   1.19e4   1.   67   158
68   159   3.1e3   1.   67   159
68   160   1.484e5   1.   67   160
68   161   1.67e4   1.   67   161
68   162   -1
68   163   6.5e3   1.   67   163
68   164   -1
68   165   53810.   1.   67   165
68   166   -1
68   167   -1
68   168   -1
68   169   1.2e6   1.   69   169
68   170   -1
68   171   39040.   1.   69   171
68   172   2.56e5   1.   69   172
68   173   1.2e2   1.   69   173
68   174   280.   1.   69   174
68   175   1.e2   1.   69   175
68   176   29.
68   177   4.
69   148   1.01   1.   68   148
69   149   1.3   1.   0.0026   0.0026   68   149   67   148   1   1
69   150   3.2   1.   68   150
69   151   6.02   1.   68   151
69   152   12.   1.   68   152
69   153   2.14   0.91   0.09   0.91   67   149   68   153   2   4
69   154   12.   0.54   0.46   0.54   67   150   68   154   2   4
69   155   31.2   0.981   0.019   0.019   68   155   67   151   2   4
69   156   121.   1.   0.00064   0.00064   68   156   67   152   2   4
69   157   314.   1.   68   157
69   158   345.   1.   68   158
69   159   790.   1.   68   159
69   160   810.   1.   68   160
69   161   2610.   1.   68   161
69   162   1880.   1.   68   162
69   163   9401.   1.   68   163
69   164   170.   0.61   0.39   68   164   68   164
69   165   1.561e5   1.   68   165
69   166   4.e4   1.   68   166
69   167   1.15e6   1.   68   167
69   168   1.16e7   1.   0.e-4   68   168   70   168
69   169   -1
69   170   1.603e7   1.   0.00131   70   170   68   170
69   171   8.74e7   1.   70   171
69   172   3.3e5   1.   70   172
69   173   4.28e4   1.   70   173
69   174   470.   1.   70   174
69   175   1320.   1.   70   175
69   176   1.6e2   1.   70   176
69   177   130.   1.   70   177
69   178   43.
69   179   29.
70   149   1.01   1.   69   149
70   151   2.3   1.   69   151
70   152   4.39   1.   69   152
70   153   6.1   0.5   0.00008   0.5   0.00008   68   149   68   152   2   4   1   1
70   155   2.587   0.89   0.11   0.89   68   151   69   155   2   4
70   156   37.7   0.9   0.1   0.1   69   156   68   152   2   4
70   157   55.7   0.995   0.005   0.005   69   157   68   153   2   4
70   158   129.   1.   0.000021   0.000021   69   158   68   154   2   4
70   159   145.   1.   69   159
70   160   420.   1.   69   160
70   161   360.   1.   69   161
70   162   1633.   1.   69   162
70   163   956.5   1.   69   163
70   164   6560.   1.   69   164
70   165   860.   1.   69   165
70   166   2.94e5   1.   69   166
70   167   1510.   1.   69   167
70   168   -1
70   169   3.992e6   1.   69   169
70   170   -1
70   171   -1
70   172   -1
70   173   -1
70   174   -1
70   175   5.217e5   1.   71   175
70   176   -1
70   177   9925.   1.   71   177
70   178   6.4e3   1.   71   178
70   179   690.   1.   71   179
70   180   2.1e2   1.   71   180
70   181   90.
71   152   1.   0.85   0.15   0.15   70   152   69   151   1   1
71   153   1.3   0.7   0.3   0   0.7   0   69   149   70   153   70   152   2   4   1   1
71   154   3.
71   157   9.8
71   158   15.3   0.9909   0.0091   0.0091   70   158   69   154   2   4
71   159   17.5   1.   0.001   0.001   70   159   69   155   2   4
71   160   52.1   1.   1.e-6   1.e-6   70   160   69   156   2   4
71   161   110.   1.   70   161
71   162   119.   1.   70   162
71   163   344.   1.   70   163
71   164   272.   1.   70   164
71   165   929.7   1.   70   165
71   166   229.   1.   70   166
71   167   4460.   1.   70   167
71   168   480.   1.   70   168
71   169   1.769e5   1.   70   169
71   170   2.508e5   1.   70   170
71   171   1.03e6   1.   70   171
71   172   8.4e5   1.   70   172
71   173   6.24e7   1.   70   173
71   174   1.51e8   1.   70   174
71   175   -1
71   176   1.71e18   1.   72   176
71   177   8.285e5   1.   72   177
71   178   2460.   1.   72   178
71   179   2.38e4   1.   72   179
71   180   490.   1.   72   180
71   181   3.e2   1.   72   181
71   182   170.   1.   72   182
71   183   84.   1.   72   183
71   184   29.   1.   72   184
72   154   2.9   1.   0   0   71   154   70   150   2   4
72   155   1.28   1.   71   155
72   158   4.11   0.55   0.45   0.45   71   158   70   154   2   4
72   159   8.   0.65   0.35   0.35   71   159   70   155   2   4
72   160   19.6   0.993   0.007   0.007   71   160   70   156   2   4
72   161   26.3   1.   0.0013   0.0013   71   161   70   157   2   4
72   162   56.8   1.   0.00008   0.00008   71   162   70   158   2   4
72   163   58.   1.   1.e-6   1.e-6   71   163   70   159   2   4
72   164   160.   1.   71   164
72   165   110.   1.   71   165
72   166   586.   1.   71   166
72   167   177.   1.   71   167
72   168   2246.   0.98   0.02   71   168   71   168
72   169   280.   1.   71   169
72   170   83150.   1.   71   170
72   171   6.28e4   1.   71   171
72   172   8.51e7   1.   71   172
72   173   1.23e5   1.   71   173
72   174   9.1e22   1.   1.   70   170   2   4
72   175   8.7e6   1.   71   175
72   176   -1
72   177   -1
72   178   -1
72   179   -1
72   180   -1
72   181   5.284e6   1.   73   181
72   182   4.1e14   1.   73   182
72   183   5542.   1.   73   183
72   184   2.14e4   1.   73   184
72   185   3.e2   1.   73   185
72   186   2.3e2   1.   73   186
72   187   43.
72   188   29.
73   159   1.2   0.66   0.34   0.34   72   159   71   155   2   4
73   160   2.24
73   161   4.
73   162   5.15   1.   0.00074   0.00074   72   162   71   158   2   4
73   163   15.3   1.   0.002   0.002   72   163   71   159   2   4
73   164   20.5   1.   72   164
73   165   45.   1.   72   165
73   166   49.6   1.   72   166
73   167   115.   1.   72   167
73   168   170.   1.   72   168
73   169   420.   1.   72   169
73   170   585.   1.   72   170
73   171   2020.   1.   72   171
73   172   3190.   1.   72   172
73   173   1.63e4   1.   72   173
73   174   5920.   1.   72   174
73   175   5.45e4   1.   72   175
73   176   4.2e4   1.   72   176
73   177   2.938e5   1.   72   177
73   178   1.23e4   1.   72   178
73   179   8.29e7   1.   72   179
73   180   42340.   0.86   0.14   72   180   74   180
73   181   -1
73   182   1.4264e7   1.   74   182
73   183   6.4e5   1.   74   183
73   184   4.5e4   1.   74   184
73   185   4280.   1.   74   185
73   186   909.   1.   74   186
73   187   2.e2
73   188   29.
73   189   4.
74   162   1.96   0.548   0.452   0.452   73   162   72   158   2   4
74   163   4.   0.87   0.13   0.13   73   163   72   159   2   4
74   164   8.9   0.962   0.038   0.038   73   164   72   160   2   4
74   165   7.4   1.   0.002   0.002   73   165   72   161   2   4
74   166   27.7   1.   0.00035   0.00035   73   166   72   162   2   4
74   167   28.7   0.9996   0.0004   0.0004   73   167   72   163   2   4
74   168   76.   1.   0.000032   0.000032   73   168   72   164   2   4
74   169   1.1e2   1.   73   169
74   170   209.   1.   0.01   0.01   73   170   72   166   2   4
74   171   206.   1.   73   171
74   172   570.   1.   73   172
74   173   660.   1.   73   173
74   174   2870.   1.   73   174
74   175   3050.   1.   73   175
74   176   1.3e4   1.   73   176
74   177   1.14e4   1.   73   177
74   178   2.69e6   1.   73   178
74   179   3207.   1.   73   179
74   180   8.2e25
74   181   1.511e7   1.   73   181
74   182   3.8e26
74   183   5.9e26
74   184   1.3e27
74   185   9.36e6   1.   75   185
74   186   1.2e27
74   187   1.232e5   1.   75   187
74   188   8.698e6   1.   75   188
74   189   926.   1.   75   189
74   190   2.6e3   1.   75   190
74   191   29.
74   192   14.
75   165   1.
75   166   3.
75   167   8.4   1.   1.   73   163   2   4
75   168   6.3   1.   0.00005   0.00005   74   168   73   164   2   4
75   169   12.   0.99995   0.00005   0.00005   74   169   73   165   2   4
75   170   13.   1.   0.e-4   0.e-4   74   170   73   166   2   4
75   171   21.9   1.   74   171
75   172   22.   1.   74   172
75   173   171.   1.   74   173
75   174   208.   1.   74   174
75   175   510.   1.   74   175
75   176   460.   1.   74   176
75   177   1.2e3   1.   74   177
75   178   1140.   1.   74   178
75   179   1690.   1.   74   179
75   180   211.   1.   74   180
75   181   1.03e5   1.   74   181
75   182   3.3e5   1.   74   182
75   183   8.7e6   1.   74   183
75   184   4.7e6   1.   74   184
75   185   -1
75   186   4.6352e5   0.9253   0.0747   76   186   74   186
75   187   1.88e18   1.   1.e-6   1.e-6   76   187   73   183   2   4
75   188   88309.   1.   76   188
75   189   1.26e5   1.   76   189
75   190   2.7e2   1.   76   190
75   191   850.   1.   76   191
75   192   23.   1.   76   192
75   193   43.
76   167   1.17   0.57   0.43   0.57   74   163   75   167   2   4
76   168   3.   0.51   0.49   0.49   75   168   74   164   2   4
76   169   4.95   0.89   0.11   0.11   75   169   74   165   2   4
76   170   10.6   0.914   0.086   0.086   75   170   74   166   2   4
76   171   12.   0.982   0.018   0.018   75   171   74   167   2   4
76   172   27.7   0.989   0.011   0.011   75   172   74   168   2   4
76   173   32.3   1.   0.004   0.004   75   173   74   169   2   4
76   174   63.   1.   0.00024   0.00024   75   174   74   170   2   4
76   175   120.   1.   75   175
76   176   3.1e2   1.   75   176
76   177   260.   1.   75   177
76   178   430.   1.   75   178
76   179   560.   1.   75   179
76   180   1860.   1.   75   180
76   181   9090.   1.   75   181
76   182   1.15e5   1.   75   182
76   183   6.8e4   1.   75   183
76   184   2.5e21
76   185   1.17e7   1.   75   185
76   186   9.1e22   1.   1.   74   182   2   4
76   187   -1
76   188   -1
76   189   -1
76   190   -1
76   191   1.92e6   1.   77   191
76   192   -1
76   193   1.564e5   1.   77   193
76   194   2.7e8   1.   77   194
76   195   8.e2   1.   77   195
76   196   3020.   1.   77   196
77   170   1.26   0.948   0.052   0.052   76   170   75   166   2   4
77   171   4.6   1.   1.   75   167   2   4
77   172   6.3   0.98   0.02   0.02   76   172   75   168   2   4
77   173   13.   0.93   0.07   0.07   76   173   75   169   2   4
77   174   11.   0.995   0.005   0.005   76   174   75   170   2   4
77   175   13.   0.9915   0.0085   0.0085   76   175   75   171   2   4
77   176   13.   0.969   0.031   0.031   76   176   75   172   2   4
77   177   43.   1.   0.0006   0.0006   76   177   75   173   2   4
77   178   17.   1.   76   178
77   179   110.   1.   76   179
77   180   130.   1.   76   180
77   181   424.   1.   76   181
77   182   1.3e3   1.   76   182
77   183   4.9e3   1.   0.0005   0.0005   76   183   75   179   2   4
77   184   1.6e4   1.   76   184
77   185   7.48e4   1.   76   185
77   186   86420.   1.   76   186
77   187   5.45e4   1.   76   187
77   188   2.16e5   1.   76   188
77   189   1.65e6   1.   76   189
77   190   1.468e6   1.   0.00002   76   190   76   190
77   191   -1
77   192   9.2025e6   0.9513   0.0487   78   192   76   192
77   193   -1
77   194   1.001e5   1.   78   194
77   195   1.3e4   1.   78   195
77   196   76.   1.   78   196
77   197   5.e2   1.   78   197
77   198   12.   1.   78   198
77   199   9.
78   174   1.28   0.77   0.77   76   170   2   4
78   175   3.65   0.64   0.64   76   171   2   4
78   176   9.13   0.62   0.38   0.38   77   176   76   172   2   4
78   177   15.3   0.943   0.057   0.057   77   177   76   173   2   4
78   178   30.4   0.923   0.077   0.077   77   178   76   174   2   4
78   179   30.6   1.   0.0024   0.0024   77   179   76   175   2   4
78   180   79.   1.   0.003   0.003   77   180   76   176   2   4
78   181   76.   1.   0.00074   0.00074   77   181   76   177   2   4
78   182   2.6e2   1.   0.00038   0.00038   77   182   76   178   2   4
78   183   560.   1.   0.000095   0.000095   77   183   76   179   2   4
78   184   1.5e3   1.   0.000017   0.000017   77   184   76   180   2   4
78   185   6140.   1.   0.00005   0.00005   77   185   76   181   2   4
78   186   1.08e4   1.   1.4e-6   1.4e-6   77   186   76   182   2   4
78   187   1.22e4   1.   77   187
78   188   1.27e6   1.   2.6e-7   2.6e-7   77   188   76   184   2   4
78   189   56460.   1.   77   189
78   190   2.96e19   1.   1.   76   186   2   4
78   191   3.53e5   1.   77   191
78   192   -1
78   193   2.3e9   1.   77   193
78   194   -1
78   195   -1
78   196   -1
78   197   103311.   1.   79   197
78   198   -1
78   199   2666.   1.   79   199
78   200   6.49e4   1.   79   200
78   201   220.   1.   79   201
78   202   2.3e5   1.   79   202
79   176   1.56   0.6   0.4   0.6   77   172   78   176   2   4
79   177   2.11   1.   1.   77   173   2   4
79   178   3.8   0.6   0.4   0.4   78   178   77   174   2   4
79   179   4.8   0.78   0.22   0.22   78   179   77   175   2   4
79   180   12.   0.982   0.018   0.018   78   180   77   176   2   4
79   181   19.8   0.973   0.027   0.027   78   181   77   177   2   4
79   182   22.5   1.   0.0013   0.0013   78   182   77   178   2   4
79   183   61.7   1.   0.0055   0.0055   78   183   77   179   2   4
79   184   29.7   1.   0.00016   0.00016   78   184   77   180   2   4
79   185   368.   1.   0.0026   0.0026   78   185   77   181   2   4
79   186   926.   1.   8.e-6   8.e-6   78   186   77   182   2   4
79   187   730.   1.   0.00003   0.00003   78   187   77   183   2   4
79   188   765.   1.   78   188
79   189   2480.   1.   3.e-7   3.e-7   78   189   77   185   2   4
79   190   3.7e3   1.   1.e-8   1.e-8   78   190   77   186   2   4
79   191   1.65e4   1.   78   191
79   192   2.57e4   1.   78   192
79   193   91670.   1.   1.e-7   1.e-7   78   193   77   189   2   4
79   194   1.975e5   1.   78   194
79   195   2.32e7   1.   78   195
79   196   7.687e5   0.928   0.072   78   196   80   196
79   197   -1
79   198   335950.   1.   80   198
79   199   3.913e5   1.   80   199
79   200   4190.   1.   80   200
79   201   2.25e3   1.   80   201
79   202   41.   1.   80   202
79   203   87.   1.   80   203
79   204   57.4   1.   80   204
79   205   45.   1.   80   205
80   179   1.56   0.53   0.47   0.0015   0.53   0.0015   78   175   79   179   78   178   2   4   1   1
80   180   3.72   0.52   0.48   0.48   79   180   78   176   2   4
80   181   5.2   0.69   0.31   0.00016   1.1e-7   0.31   0.00016   1.1e-7   79   181   78   177   78   180   77   177   2   4   1   1   2   4
80   182   15.62   0.862   0.138   1.e-7   0.138   1.e-7   79   182   78   178   78   181   2   4   1   1
80   183   14.   0.883   0.117   2.6e-6   0.117   2.6e-6   79   183   78   179   78   182   2   4   1   1
80   184   44.6   0.9889   0.0111   0.0111   79   184   78   180   2   4
80   185   70.8   0.94   0.06   0.06   79   185   78   181   2   4
80   186   119.   1.   0.00016   0.00016   79   186   78   182   2   4
80   187   2.1e2   1.   1.2e-6   1.2e-6   79   187   78   183   2   4
80   188   281.   1.   3.7e-7   3.7e-7   79   188   78   184   2   4
80   189   660.   1.   3.e-7   3.e-7   79   189   78   185   2   4
80   190   1.7e3   1.   0.01   3.4e-9   3.4e-9   79   190   79   190   78   186   2   4
80   191   4.2e3   1.   5.e-8   5.e-8   79   191   78   187   2   4
80   192   2.52e4   1.   4.e-8   4.e-8   79   192   78   188   2   4
80   193   1.97e4   1.   79   193
80   194   2.02e10   1.   79   194
80   195   54690.   1.   79   195
80   196   -1
80   197   3.331e5   1.   79   197
80   198   -1
80   199   -1
80   200   -1
80   201   -1
80   202   -1
80   203   5.8079e6   1.   81   203
80   204   -1
80   205   445.   1.   81   205
80   206   720.   1.   81   206
80   207   2.5e2   1.   81   207
80   208   3.6e3   1.   81   208
80   209   50.   1.   81   209
80   210   870.
81   180   2.2   0.07   0.07   79   176   2   4
81   182   4.5   0.96   0.04   0.04   80   182   79   178   2   4
81   183   10.   0.98   0.02   0.02   80   183   79   179   2   4
81   184   16.   0.979   0.021   0.021   80   184   79   180   2   4
81   185   28.1
81   186   58.
81   187   74.   1.   80   187
81   188   1.e2   1.   80   188
81   189   2.e2   1.   80   189
81   190   230.   1.   80   190
81   191   1.7e3
81   192   830.   1.   80   192
81   193   1870.   1.   80   193
81   194   2.9e3   1.   1.e-9   1.e-9   80   194   79   190   2   4
81   195   6020.   1.   80   195
81   196   9560.   1.   80   196
81   197   1.48e4   1.   80   197
81   198   2.8e4   1.   80   198
81   199   3.85e4   1.   80   199
81   200   1.36e5   1.   80   200
81   201   3.7919e5   1.   80   201
81   202   1.534e6   1.   80   202
81   203   -1
81   204   1.72e8   0.971   0.029   82   204   80   204
81   205   -1
81   206   363.7   1.   82   206
81   207   413.   1.   82   207
81   208   264.3   1.   82   208
81   209   190.   1.   82   209
81   210   110.   1.   0.00009   82   210   82   209
81   211   90.
81   212   43.
82   185   8.9   0.5   0.5   80   181   2   4
82   186   6.95   0.6   0.4   0.4   81   186   80   182   2   4
82   187   21.9   0.93   0.07   0.07   81   187   80   183   2   4
82   188   36.2   0.907   0.093   0.093   81   188   80   184   2   4
82   189   74.   0.99   0.004   0.004   81   189   80   185   2   4
82   190   1.e2   0.996   0.004   0.004   81   190   80   186   2   4
82   191   115.   1.   0.00013   0.00013   81   191   80   187   2   4
82   192   3.e2   1.   0.000059   0.000059   81   192   80   188   2   4
82   193   4.e2
82   194   926.   1.   7.3e-8   7.3e-8   81   194   80   190   2   4
82   195   1.3e3   1.   81   195
82   196   3.2e3   1.   3.e-7   3.e-7   81   196   80   192   2   4
82   197   690.   1.   81   197
82   198   1.2e4   1.   81   198
82   199   7.8e3   1.   81   199
82   200   1.12e5   1.   81   200
82   201   4.85e4   1.   81   201
82   202   2.39e12   1.   0.01   0.01   81   202   80   198   2   4
82   203   2.697e5   1.   81   203
82   204   6.4e24
82   205   7.87e14   1.   81   205
82   206   -1
82   207   -1
82   208   -1
82   209   1.69e4   1.   83   209
82   210   1.01e9   1.   1.9e-8   1.9e-8   83   210   80   206   2   4
82   211   3120.   1.   83   211
82   212   55260.   1.   83   212
82   213   883.   1.   83   213
82   214   2320.   1.   83   214
82   215   52.   1.   83   215
83   190   8.9   0.77   0.77   81   186   2   4
83   191   17.9   0.6   0.4   0.6   81   187   82   191   2   4
83   192   49.9   0.88   0.12   0.12   82   192   81   188   2   4
83   193   91.8   0.965   0.035   0.035   82   193   81   189   2   4
83   194   140.   1.   0.0046   0.0046   82   194   81   190   2   4
83   195   264.   1.   0.0003   0.0003   82   195   81   191   2   4
83   196   444.   1.   0.0000115   0.0000115   82   196   81   192   2   4
83   197   810.   1.   1.e-6   1.e-6   82   197   81   193   2   4
83   198   892.   1.   82   198
83   199   2.3e3   1.   82   199
83   200   3150.   1.   82   200
83   201   8.92e3   1.   1.e-6   1.e-6   82   201   81   197   2   4
83   202   8.88e3   1.   1.e-7   1.e-7   82   202   81   198   2   4
83   203   61080.   1.   1.e-7   1.e-7   82   203   81   199   2   4
83   204   58270.   1.   82   204
83   205   1.908e6   1.   82   205
83   206   7.782e5   1.   82   206
83   207   1.5e9   1.   82   207
83   208   1.68e13   1.   82   208
83   209   8.64e26   1.   1.   81   205   2   4
83   210   6.247e5   1.   1.32e-6   1.32e-6   84   210   81   206   2   4
83   211   185.   1.   0.00276   1.   81   207   84   211   2   4
83   212   5241.   0.6405   0.3594   0.00014   0.3594   0.00014   84   212   81   208   82   208   2   4   2   4
83   213   3946.   0.9791   0.0209   0.0209   84   213   81   209   2   4
83   214   1.72e3   1.   0.00021   0.00003   0.00021   0.00003   84   214   81   210   82   210   2   4   2   4
83   215   660.   1.   84   215
83   216   195.   1.   84   216
83   217   140.   1.   84   217
83   218   48.   1.   84   218
84   195   6.69   0.75   0.25   0.75   82   191   83   195   2   4
84   196   8.2   0.94   0.06   0.94   82   192   83   196   2   4
84   197   1.2e2   0.56   0.44   0.44   83   197   82   193   2   4
84   198   153.   0.57   0.43   0.57   82   194   83   198   2   4
84   199   474.   0.926   0.074   0.074   83   199   82   195   2   4
84   200   995.   0.889   0.111   0.111   83   200   82   196   2   4
84   201   1.35e3   0.984   0.016   0.016   83   201   82   197   2   4
84   202   3870.   0.9808   0.0192   0.0192   83   202   82   198   2   4
84   203   3180.   1.   0.0011   0.0011   83   203   82   199   2   4
84   204   1.83e4   0.9934   0.0066   0.0066   83   204   82   200   2   4
84   205   9.04e3   1.   0.0004   0.0004   83   205   82   201   2   4
84   206   1.1e6   0.9455   0.0545   0.0545   83   206   82   202   2   4
84   207   3.e4   1.   0.00021   0.00021   83   207   82   203   2   4
84   208   1.318e8   1.   0.0000223   1.   82   204   83   208   2   4
84   209   4.64e9   1.   0.0047   1.   82   205   83   209   2   4
84   210   1.72484e7   1.   1.   82   206   2   4
84   217   2.21   0.95   0.05   0.95   82   213   85   217   2   4
84   218   268.2   1.   0.0002   1.   82   214   85   218   2   4
85   198   6.1   0.94   0.94   83   194   2   4
85   199   10.1   0.89   0.89   83   195   2   4
85   200   62.3   0.57   0.43   0.57   83   196   84   200   2   4
85   201   120.   0.71   0.29   0.71   83   197   84   201   2   4
85   202   265.   0.82   0.18   0.18   84   202   83   198   2   4
85   203   640.   0.69   0.31   0.31   84   203   83   199   2   4
85   204   8.e2   0.962   0.038   0.038   84   204   83   200   2   4
85   205   2.33e3   0.9   0.1   0.1   84   205   83   201   2   4
85   206   2650.   0.9911   0.0089   0.0089   84   206   83   202   2   4
85   207   9.3e3   0.914   0.086   0.086   84   207   83   203   2   4
85   208   8470.   0.9945   0.0055   0.0055   84   208   83   204   2   4
85   209   2.81e4   0.959   0.041   0.041   84   209   83   205   2   4
85   210   4.2e4   1.   0.00175   0.00175   84   210   83   206   2   4
85   211   37470.   0.582   0.418   0.418   84   211   83   207   2   4
85   218   2.2   1.   0.001   1.   83   214   86   218   2   4
85   219   79.   0.97   0.03   0.97   83   215   86   219   2   4
85   220   321.   0.92   0.08   0.08   86   220   83   216   2   4
85   221   2.e2   1.   86   221
85   222   78.   1.   86   222
85   223   71.   1.   0.00008   0.00008   86   223   83   219   2   4
86   200   1.49   0.98   0.02   0.98   84   196   85   200   2   4
86   201   10.   0.8   0.2   0.8   84   197   85   201   2   4
86   202   14.   0.86   0.14   0.86   84   198   85   202   2   4
86   203   62.8   0.66   0.34   0.66   84   199   85   203   2   4
86   204   101.   0.73   0.73   84   200   2   4
86   205   240.   0.77   0.23   0.23   85   205   84   201   2   4
86   206   491.   0.62   0.38   0.62   84   202   85   206   2   4
86   207   801.   0.79   0.21   0.21   85   207   84   203   2   4
86   208   2108.   0.62   0.38   0.62   84   204   85   208   2   4
86   209   2470.   0.83   0.17   0.17   85   209   84   205   2   4
86   210   1.2e4   0.96   0.96   84   206   2   4
86   211   7.58e4   0.726   0.274   0.274   85   211   84   207   2   4
86   212   2.07e3   1.   1.   84   208   2   4
86   219   5.71   1.   1.   84   215   2   4
86   220   80.2   1.   1.   84   216   2   4
86   221   2.2e3   0.78   0.22   0.22   87   221   84   217   2   4
86   222   476590.   1.   1.   84   218   2   4
86   223   2.1e3   1.   4.e-6   4.e-6   87   223   84   219   2   4
86   224   9260.   1.   87   224
86   225   403.   1.   87   225
86   226   640.   1.   87   226
86   227   30.   1.   87   227
86   228   94.   1.   87   228
87   204   2.5   0.96   0.96   85   200   2   4
87   205   5.49   1.   0.01   1.   85   201   86   205   2   4
87   206   23.   0.58   0.42   0.42   86   206   85   202   2   4
87   207   21.4   0.95   0.05   0.95   85   203   86   207   2   4
87   208   85.3   0.9   0.1   0.9   85   204   86   208   2   4
87   209   71.   0.89   0.11   0.89   85   205   86   209   2   4
87   210   275.   0.6   0.4   0.6   85   206   86   210   2   4
87   211   268.   0.8   0.2   0.8   85   207   86   211   2   4
87   212   1.7e3   0.57   0.43   0.43   86   212   85   208   2   4
87   213   50.23   0.9945   0.0055   0.9945   85   209   86   213   2   4
87   220   39.5   1.   0.0035   1.   85   216   88   220   2   4
87   221   420.   1.   0.000048   8.8e-13   1.   8.8e-13   85   217   88   221   81   207   2   4   6   14
87   222   1230.   1.   88   222
87   223   1.9e3   1.   0.00006   0.00006   88   223   85   219   2   4
87   224   288.   1.   88   224
87   225   342.   1.   88   225
87   226   71.   1.   88   226
87   227   214.   1.   88   227
87   228   55.   1.   88   228
87   229   72.4   1.   88   229
87   230   27.6   1.   88   230
87   231   25.4   1.   88   231
87   232   7.9   1.   88   232
88   207   1.9   0.9   0.1   0.9   86   203   87   207   2   4
88   208   1.9   0.95   0.05   0.95   86   204   87   208   2   4
88   209   6.6   0.9   0.1   0.9   86   205   87   209   2   4
88   210   5.2   0.96   0.04   0.96   86   206   87   210   2   4
88   211   19.   0.93   0.07   0.93   86   207   87   211   2   4
88   212   19.   0.85   0.15   0.85   86   208   87   212   2   4
88   213   237.   0.8   0.8   86   209   2   4
88   214   3.55   1.   0.0006   1.   86   210   87   214   2   4
88   221   40.   1.   1.2e-12   1.   1.2e-12   86   217   82   207   2   4   6   14
88   222   55.   1.   3.e-10   1.   3.e-10   86   218   82   208   2   4   6   14
88   223   1.425e6   1.   8.9e-10   1.   8.9e-10   86   219   82   209   2   4   6   14
88   224   4.5271e5   1.   4.e-11   1.   4.e-11   86   220   82   210   2   4   6   14
88   225   1.86e6   1.   89   225
88   226   7.3e10   1.   2.6e-11   1.   2.6e-11   86   222   82   212   2   4   6   14
88   227   3650.   1.   89   227
88   228   2.62e8   1.   89   228
88   229   350.   1.   89   229
88   230   8.1e3   1.   89   230
88   231   149.   1.   89   231
88   232   361.   1.   89   232
88   233   43.   1.   89   233
88   234   43.   1.   89   234
89   212   1.34   0.97   0.03   0.97   87   208   88   212   2   4
89   213   1.06
89   214   12.   0.89   0.11   0.89   87   210   88   214   2   4
89   222   7.2   0.99   0.01   0.99   87   218   88   222   2   4
89   223   182.   0.99   0.01   0.99   87   219   88   223   2   4
89   224   1.44e4   0.906   0.094   0.016   0.094   88   224   87   220   90   224   2   4
89   225   1.2e6   1.   6.e-12   1.   6.e-12   87   221   83   211   2   4   6   14
89   226   1.525e5   0.83   0.17   0.00006   0.00006   90   226   88   226   87   222   2   4
89   227   9.9056e8   0.9862   0.0138   0.0138   90   227   87   223   2   4
89   228   3.19e4   1.   90   228
89   229   5430.   1.   90   229
89   230   176.   1.   90   230
89   231   650.   1.   90   231
89   232   172.   1.   90   232
89   233   209.   1.   90   233
89   234   63.   1.   90   234
89   235   87.
89   236   2.e2
90   215   1.7   1.   1.   88   211   2   4
90   224   1.17   1.   1.   88   220   2   4
90   225   755.   0.9   0.1   0.9   88   221   89   225   2   4
90   226   2646.   1.   3.2e-14   1.   3.2e-14   88   222   82   208   2   4   8   18
90   227   2.328e6   1.   1.   88   223   2   4
90   228   8.6972e7   1.   1.13e-13   1.   1.13e-13   88   224   82   208   2   4   8   20
90   229   3.585e11   1.   1.   88   225   2   4
90   230   3.432e12   1.   5.6e-13   1.   5.6e-13   88   226   80   206   2   4   10   24
90   231   1.325e5   1.   4.e-13   4.e-13   91   231   88   227   2   4
90   232   6.37e17   1.   2.78e-12   1.   2.78e-12   2.78e-12   88   228   70   182   2   4   10   24   10   26
90   233   1890.   1.   91   233
90   234   3.e6   1.   91   234
90   235   620.   1.   91   235
90   236   3.23e3   1.   91   236
90   237   4.1e2   1.   91   237
90   238   810.   1.   91   238
91   224   1.23   1.   0.001   1.   89   220   90   224   2   4
91   225   2.5   1.   1.   89   221   2   4
91   226   1.6e2   0.74   0.26   0.74   89   222   90   226   2   4
91   227   3320.   0.85   0.15   0.85   89   223   90   227   2   4
91   228   1.1e5   0.98   0.02   0.02   90   228   89   224   2   4
91   229   1.9e5   1.   0.0048   0.0048   90   229   89   225   2   4
91   230   2.17e6   0.916   0.084   0.000032   0.000032   90   230   92   230   89   226   2   4
91   231   1.49e12   1.   1.34e-11   9.9e-15   1.   1.34e-11   9.9e-15   89   227   81   207   82   208   2   4   10   24   9   23
91   232   1.65e5   1.   0.00003   92   232   90   232
91   233   3.3624e6   1.   92   233
91   234   3.5e4   1.   92   234
91   235   2116.   1.   92   235
91   236   790.   1.   92   236
91   237   750.   1.   92   237
91   238   196.   1.   92   238
91   239   9.3e3   1.   92   239
91   240   2.e2
92   227   95.   1.   1.e-5   1.   90   223   91   227   2   4
92   228   790.   0.95   0.05   0.95   90   224   91   228   2   4
92   229   5.e3   0.8   0.2   0.2   91   229   90   225   2   4
92   230   2.59e6   1.   4.8e-14   1.   4.8e-14   90   226   82   208   2   4   12   22
92   231   5.2e5   1.   0.00004   0.00004   91   231   90   227   2   4
92   232   3.14e9   1.   8.9e-12   5.e-14   1.   8.9e-12   5.e-14   90   228   82   208   80   204   2   4   10   24   12   28
92   233   7.243e12   1.   7.2e-13   1.3e-15   1.   7.2e-13   1.3e-15   90   229   82   209   80   205   2   4   10   24   12   28
92   234   1.117e13   1.   1.4e-13   9.e-14   1.   1.4e-13   9.e-14   9.e-14   90   230   80   206   72   184   2   4   12   28   10   24   10   26
92   235   3.21e16   1.   8.e-12   8.e-12   8.e-12   1.   8.e-12   8.e-12   8.e-12   90   231   80   207   82   210   82   215   2   4   12   28   10   25   10   20
92   236   1.066e15   1.   1.   90   232   2   4
92   237   8.41e5   1.   93   237
92   238   2.034e17   1.   2.2e-12   1.   90   234   94   238   2   4
92   239   2030.   1.   93   239
92   240   7.32e4   1.   1.e-12   1.e-12   93   240   90   236   2   4
92   241   4.e2
92   242   1450.   1.   93   242
93   228   88.6   0.6   0.4   0.4   92   228   91   224   2   4
93   229   350.   0.5   0.5   0.5   92   229   91   225   2   4
93   230   4.e2   0.97   0.03   0.03   92   230   91   226   2   4
93   231   4220.   0.98   0.02   0.02   92   231   91   227   2   4
93   232   1270.   1.   0.00003   0.00003   92   232   91   228   2   4
93   233   3130.   1.   1.e-5   1.e-5   92   233   91   229   2   4
93   234   5.5e5   1.   92   234
93   235   4.937e7   1.   0.000026   0.000026   92   235   91   231   2   4
93   236   6.96e12   0.873   0.125   0.0016   0.0016   92   236   94   236   91   232   2   4
93   237   9.755e13   1.   4.e-14   1.   4.e-14   91   233   81   207   2   4   12   30
93   238   2.639e5   1.   94   238
93   239   2.937e5   1.   5.e-12   5.e-12   94   239   91   235   2   4
93   240   5360.   1.   94   240
93   241   1.2e3   1.   94   241
93   242   190.   1.   94   242
93   243   160.   1.   94   243
93   244   198.   1.   94   244
94   228   1.6   1.   0.001   1.   92   224   93   228   2   4
94   229   1.3e2   1.   1.   92   225   2   4
94   230   147.
94   231   740.   0.87   0.13   0.13   93   231   92   227   2   4
94   232   2.93e3   0.89   0.11   0.11   93   232   92   228   2   4
94   233   1.81e3   1.   0.0012   0.0012   93   233   92   229   2   4
94   234   4.6e4   0.94   0.06   0.06   93   234   92   230   2   4
94   235   2190.   1.   0.000028   0.000028   93   235   92   231   2   4
94   236   1.3e8   1.   2.e-14   1.   2.e-14   92   232   82   208   2   4   12   28
94   237   5.63e6   1.   0.000042   0.000042   93   237   92   233   2   4
94   238   3.99e9   1.   1.4e-16   6.e-17   1.   1.4e-16   6.e-17   6.e-17   92   234   80   206   82   180   2   4   14   32   12   28   12   30
94   239   1.0969e12   1.   1.   92   235   2   4
94   240   2.985e11   1.   1.3e-15   1.   1.3e-15   92   236   80   206   2   4   14   34
94   241   6.5015e8   1.   0.0000245   0.0000245   95   241   92   237   2   4
94   242   1.71e13   1.   1.   92   238   2   4
94   243   25740.   1.   95   243
94   244   3.6e15   1.   7.3e-11   1.   92   240   96   244   2   4
94   245   5.45e4   1.   95   245
94   246   1.351e6   1.   95   246
94   247   2.83e5   1.   95   247
95   231   43.
95   232   113.   0.02   0.02   93   228   2   4
95   233   280.   0.97   0.03   0.03   94   233   93   229   2   4
95   234   201.   1.   0.00039   0.00039   94   234   93   230   2   4
95   235   860.   1.   0.004   0.004   94   235   93   231   2   4
95   236   3.1e2
95   237   6.3e3   1.   0.00025   0.00025   94   237   93   233   2   4
95   238   8.5e3   1.   1.e-6   1.e-6   94   238   93   234   2   4
95   239   6.18e4   1.   0.e-4   0.e-4   94   239   93   235   2   4
95   240   2.64e5   1.   1.9e-6   1.9e-6   94   240   93   236   2   4
95   241   1.968e10   1.   7.4e-16   1.   7.4e-16   93   237   81   207   2   4   14   34
95   242   8.32e4   0.827   0.173   96   242   94   242
95   243   3.36e11   1.   1.   93   239   2   4
95   244   5.25e4   1.   96   244
95   245   1.06e4   1.   96   245
95   246   3.4e3   1.   96   246
95   247   2.e3   1.   96   247
95   248   8.7e2
95   249   90.
96   233   90.
96   234   74.   0.5   0.47   0.5   94   230   95   234   2   4
96   235   4.e2
96   236   870.
96   237   1.7e3
96   238   1.2e4   0.9   0.1   0.1   95   238   94   234   2   4
96   239   1.5e4   1.   0.001   0.001   95   239   94   235   2   4
96   240   3.4e6   1.   0.005   1.   94   236   95   240   2   4
96   241   4.09e6   0.99   0.01   0.01   95   241   94   237   2   4
96   242   2.029e7   1.   1.1e-16   1.   1.1e-16   94   238   82   208   2   4   14   34
96   243   1.32e9   1.   0.0029   1.   94   239   95   243   2   4
96   244   8.24e8   1.   1.   94   240   2   4
96   245   3.9e11   1.   1.   94   241   2   4
96   246   2.17e11   1.   1.   94   242   2   4
96   247   7.1e14   1.   1.   94   243   2   4
96   248   1.58e13   0.9161   0.9161   94   244   2   4
96   249   5553.   1.   97   249
96   250   3.779e11   0.18   0.08   0.18   94   246   97   250   2   4
96   251   1450.   1.   97   251
96   252   2.e5
97   235   29.
97   236   90.
97   237   90.
97   238   208.   1.   96   238
97   239   3.e2
97   240   420.   0.1   0.1   95   236   2   4
97   241   4.e2
97   242   610.   1.   96   242
97   243   2.3e4   1.   0.0015   0.0015   96   243   95   239   2   4
97   244   2.26e4   0.99994   0.00006   0.00006   96   244   95   240   2   4
97   245   6.16e5   1.   0.0012   0.0012   96   245   95   241   2   4
97   246   2.2e5   1.   0.001   0.001   96   246   95   242   2   4
97   247   6.28e10   1.   1.   95   243   2   4
97   248   4.e8
97   249   4.11e7   1.   0.0000145   0.0000145   98   249   95   245   2   4
97   250   16680.   1.   98   250
97   251   4810.   1.   98   251
97   252   160.
97   253   870.
97   254   90.
98   237   3.
98   239   56.
98   240   83.1   0.98   0.98   96   236   2   4
98   241   327.   0.75   0.25   0.25   97   241   96   237   2   4
98   242   3.2e2   0.8   0.2   0.8   96   238   97   242   2   4
98   243   926.   0.86   0.14   0.14   97   243   96   239   2   4
98   244   1.68e3   1.   1.   96   240   2   4
98   245   3.9e3   0.64   0.36   0.36   97   245   96   241   2   4
98   246   1.85e5   1.   0.00004   1.   96   242   97   246   2   4
98   247   1.62e4   1.   0.00035   0.00035   97   247   96   243   2   4
98   248   4.157e7   1.   1.   96   244   2   4
98   249   1.6e10   1.   1.   96   245   2   4
98   250   5.951e8   1.   1.   96   246   2   4
98   251   4.09e10   1.   1.   96   247   2   4
98   252   1.203e8   0.96908   0.96908   96   248   2   4
98   253   2.22e6   1.   0.0031   0.0031   99   253   96   249   2   4
98   254   7.54e6   0.0031   0.0031   96   250   2   4
98   255   7.4e3   1.   2.e-9   2.e-9   99   255   96   251   2   4
98   256   1060.   6.2e-9   6.2e-9   96   252   2   4
99   240   1.
99   241   1.e1
99   242   19.5
99   243   30.   0.7   0.3   0.3   98   243   97   239   2   4
99   244   53.   0.05   0.05   97   240   2   4
99   245   95.   0.6   0.4   0.4   98   245   97   241   2   4
99   246   670.   0.901   0.099   0.099   98   246   97   242   2   4
99   247   394.   0.93   0.07   0.07   98   247   97   243   2   4
99   248   2.3e3   1.   0.0025   0.0025   98   248   97   244   2   4
99   249   8847.   1.   0.0057   0.0057   98   249   97   245   2   4
99   250   4.5e4   0.97   98   250
99   251   1.7e5   0.995   0.005   0.005   98   251   97   247   2   4
99   252   5.88e7   0.78   0.22   0.78   97   248   98   252   2   4
99   253   2.552e6   1.   1.   97   249   2   4
99   254   3.437e7   1.   0.0003   1.74e-6   1.   97   250   98   254   100   254   2   4
99   255   4.96e6   0.92   0.08   0.08   100   255   97   251   2   4
99   256   2.2e3   1.   100   256
99   257   9.6e5   1.   4.e-6   4.e-6   100   257   97   253   2   4
99   258   3.e2
100   245   6.1   0.957   0.042   0.957   98   241   99   245   2   4
100   246   1.6
100   247   42.   0.5   0.5   0.5   99   247   98   243   2   4
100   248   52.   0.93   0.07   0.93   98   244   99   248   2   4
100   249   2.2e2   0.67   0.33   0.33   99   249   98   245   2   4
100   250   2.6e3   0.9   0.1   0.9   98   246   99   250   2   4
100   251   2.8e4   0.982   0.018   0.018   99   251   98   247   2   4
100   252   1.319e5   1.   1.   98   248   2   4
100   253   3.7e5   0.88   0.12   0.12   99   253   98   249   2   4
100   254   1.683e4   1.   1.   98   250   2   4
100   255   1.042e5   1.   1.   98   251   2   4
100   256   13640.   0.081   0.081   98   252   2   4
100   257   1.253e7   1.   1.   98   253   2   4
100   259   2.2
101   246   1.4
101   247   1.62
101   248   9.9   0.8   0.2   0.2   100   248   99   244   2   4
101   249   35.   0.6   0.6   99   245   2   4
101   250   75.   0.93   0.07   0.07   100   250   99   246   2   4
101   251   350.   0.95   100   251
101   252   2.e2   0.5   0.5   0.5   99   248   100   252   2   4
101   253   5.e2   1.   0.006   0.006   100   253   99   249   2   4
101   254   870.   1.   100   254
101   255   2.3e3   0.92   0.08   0.08   100   255   99   251   2   4
101   256   6.7e3   0.88   0.092   0.092   100   256   99   252   2   4
101   257   2.87e4   0.85   0.15   0.15   100   257   99   253   2   4
101   258   6.42e6   1.   0.000015   0.000015   1.   99   254   102   258   100   258   2   4
101   259   8.3e3   0.013   0.013   99   255   2   4
101   260   3.96e6   0.05   0.05   0.035   0.05   100   260   99   256   102   260   2   4
101   261   3.5e3
101   262   3.e2
102   251   1.15   0.83   0.17   0.83   100   247   101   251   2   4
102   252   3.52   0.67   0.67   100   248   2   4
102   253   140.   0.8   0.2   0.8   100   249   101   253   2   4
102   254   74.   0.9   0.1   0.9   100   250   101   254   2   4
102   255   2.7e2   0.61   0.39   0.61   100   251   101   255   2   4
102   256   4.2   1.   0.e-4   1.   100   252   101   256   2   4
102   257   36.   0.85   0.15   0.85   100   253   101   257   2   4
102   259   5.e3   0.75   0.25   0.75   100   255   101   259   2   4
102   261   2.e4
102   263   1.7e3
102   264   90.
103   254   19.   0.76   0.24   0.76   101   250   102   254   2   4
103   255   32.   0.69   0.3   0.69   101   251   102   255   2   4
103   256   39.   0.85   0.15   0.85   101   252   102   256   2   4
103   258   5.9   0.95   0.05   0.95   101   254   102   258   2   4
103   259   8.9   0.78   0.006   0.78   101   255   102   259   2   4
103   260   260.   0.8   0.2   0.8   101   256   102   260   2   4
103   261   3.4e3
103   262   2.e4
103   263   3.e4
103   264   5.2e4
103   265   5.2e4
103   266   5.e3
104   255   2.42   0.48   0.48   102   251   2   4
104   257   6.7   0.88   0.11   0.88   102   253   103   257   2   4
104   259   4.6   0.92   0.003   0.92   102   255   103   259   2   4
104   261   94.   0.6   0.6   102   257   2   4
104   262   3.3   0.008   0.008   102   258   2   4
104   263   8.7e2   0.3   0.3   102   259   2   4
104   264   5.e3
104   265   6.8e4
104   266   5.2e4
104   267   3.e4
104   268   5.e3
105   255   2.3   0.8   0.8   103   251   2   4
105   256   2.3   0.36   104   256
105   257   2.16   0.94   0.01   0.94   103   253   104   257   2   4
105   258   5.8   0.64   0.36   0.64   103   254   104   258   2   4
105   260   2.19   0.904   0.025   0.904   103   256   104   260   2   4
105   261   2.6   0.82   0.82   103   257   2   4
105   262   50.   0.67   0.03   0.67   103   258   104   262   2   4
105   263   39.   0.37   0.069   0.37   103   259   104   263   2   4
105   264   3.e2
105   265   1.3e3
105   266   1.7e3
105   267   1.e4
105   268   3.e4
105   269   2.e4
105   270   5.e3
106   263   1.4   0.7   0.7   104   259   2   4
106   265   12.   0.5   0.5   104   261   2   4
106   266   30.   0.34   0.34   104   262   2   4
106   268   43.
106   269   50.   1.   1.   104   265   2   4
106   270   870.
106   271   1.e4
106   272   5.e3
106   273   90.
107   265   1.3
107   266   7.2   1.   1.   105   262   2   4
107   267   32.   1.   1.   105   263   2   4
107   268   36.
107   269   36.
107   270   43.
107   271   58.
107   272   2.e2
107   273   7.8e3
107   274   7.8e3
107   275   3.5e3
108   268   3.
108   269   39.   1.   1.   106   265   2   4
108   270   5.2   1.   1.   106   266   2   4
108   271   58.
108   272   58.
108   273   72.
108   274   90.
108   275   2.6e3
108   276   5.e3
108   277   3.5e3
109   270   3.
109   271   7.
109   272   14.
109   273   29.
109   274   29.
109   275   43.
109   276   58.
109   277   90.
109   278   2.6e3
109   279   5.e2
110   272   1.
110   274   3.
110   275   3.
110   276   7.
110   277   7.
110   278   14.
110   279   14.
110   280   16.
110   281   350.   1.   1.   108   277   2   4
111   277   1.
111   278   1.
111   279   4.
111   280   14.
111   281   90.
111   282   3.e2
111   283   870.
112   280   1.
112   281   14.
112   282   43.
112   283   360.
112   284   45.   1.   1.   110   280   2   4
112   285   3.5e3   1.   1.   110   281   2   4
113   283   14.
113   284   90.
113   285   2.e2
113   286   4.e2
113   287   1.7e3
114   285   7.
114   286   7.
114   287   14.   1.   1.   112   283   2   4
114   288   4.   1.   1.   112   284   2   4
114   289   120.   1.   1.   112   285   2   4
115   288   1.
115   289   14.
115   290   14.
115   291   90.
